\relax 
\catcode `"\active 
\select@language{bulgarian}
\@writefile{toc}{\select@language{bulgarian}}
\@writefile{lof}{\select@language{bulgarian}}
\@writefile{lot}{\select@language{bulgarian}}
\select@language{bulgarian}
\@writefile{toc}{\select@language{bulgarian}}
\@writefile{lof}{\select@language{bulgarian}}
\@writefile{lot}{\select@language{bulgarian}}
