\relax 
\select@language{english}
\@writefile{toc}{\select@language{english}}
\@writefile{lof}{\select@language{english}}
\@writefile{lot}{\select@language{english}}
\select@language{english}
\@writefile{toc}{\select@language{english}}
\@writefile{lof}{\select@language{english}}
\@writefile{lot}{\select@language{english}}
\@writefile{toc}{\contentsline {section}{\numberline {1}Introduction}{1}}
\@writefile{toc}{\contentsline {section}{\numberline {2}Contents overview}{1}}
\@writefile{toc}{\contentsline {section}{\numberline {3}MemVis}{2}}
\@writefile{toc}{\contentsline {section}{\numberline {4}Call stack}{2}}
\@writefile{toc}{\contentsline {subsection}{\numberline {4.1}Description}{3}}
\@writefile{toc}{\contentsline {subsection}{\numberline {4.2}Structure}{3}}
\@writefile{toc}{\contentsline {subsubsection}{\numberline {4.2.1}Push and Pop functions}{4}}
\@writefile{toc}{\contentsline {section}{\numberline {5}Buffer Overflow}{5}}
\@writefile{toc}{\contentsline {subsection}{\numberline {5.1}Description}{6}}
\@writefile{toc}{\contentsline {subsection}{\numberline {5.2}Impact of buffer overflow}{7}}
\@writefile{toc}{\contentsline {subsection}{\numberline {5.3}Example}{7}}
\@writefile{lof}{\contentsline {figure}{\numberline {1}{\ignorespaces  \relax }}{8}}
\providecommand*\caption@xref[2]{\@setref\relax\@undefined{#1}}
\newlabel{buffer1}{{1}{8}}
\@writefile{lof}{\contentsline {figure}{\numberline {2}{\ignorespaces  \relax }}{8}}
\newlabel{buffer2}{{2}{8}}
\@writefile{toc}{\contentsline {section}{\numberline {6}Implementation}{9}}
\@writefile{toc}{\contentsline {subsection}{\numberline {6.1}Back-end}{10}}
\@writefile{toc}{\contentsline {subsection}{\numberline {6.2}Front-end}{10}}
\@writefile{toc}{\contentsline {section}{\numberline {7}Future work}{12}}
\@writefile{toc}{\contentsline {section}{\numberline {8}Conclusion}{12}}
\@writefile{toc}{\contentsline {section}{\numberline {9}Acknowledgments}{12}}
\@writefile{toc}{\contentsline {section}{\numberline {10}References}{13}}
